{
  "id": "Koti_460,71,-34",
  "name": "Koti",
  "icon": "waypoint-normal.png",
  "x": 460,
  "y": 71,
  "z": -34,
  "r": 39,
  "g": 71,
  "b": 213,
  "enable": true,
  "type": "Normal",
  "origin": "journeymap",
  "dimensions": [
    0
  ],
  "persistent": true
}