{
  "id": "sheep sighting_402,72,101",
  "name": "sheep sighting",
  "icon": "waypoint-normal.png",
  "x": 402,
  "y": 72,
  "z": 101,
  "r": 254,
  "g": 0,
  "b": 87,
  "enable": true,
  "type": "Normal",
  "origin": "journeymap",
  "dimensions": [
    0
  ],
  "persistent": true
}