---- Minecraft Crash Report ----
// I feel sad now :(

Time: 2019-11-16 14:22:16 EET
Description: Initializing game

java.lang.RuntimeException: Invalid id 4096 - maximum id range exceeded.
    at net.minecraftforge.registries.ForgeRegistry.add(ForgeRegistry.java:295)
    at net.minecraftforge.registries.ForgeRegistry.add(ForgeRegistry.java:281)
    at net.minecraftforge.registries.ForgeRegistry.register(ForgeRegistry.java:113)
    at com.globbypotato.rockhounding_chemistry.ModBlocks$RegistrationHandler.registerBlock(ModBlocks.java:117)
    at net.minecraftforge.fml.common.eventhandler.ASMEventHandler_917_RegistrationHandler_registerBlock_Register.invoke(.dynamic)
    at net.minecraftforge.fml.common.eventhandler.ASMEventHandler.invoke(ASMEventHandler.java:90)
    at net.minecraftforge.fml.common.eventhandler.EventBus$1.invoke(EventBus.java:144)
    at net.minecraftforge.fml.common.eventhandler.EventBus.post(EventBus.java:182)
    at net.minecraftforge.registries.GameData.fireRegistryEvents(GameData.java:845)
    at net.minecraftforge.fml.common.Loader.preinitializeMods(Loader.java:630)
    at net.minecraftforge.fml.client.FMLClientHandler.beginMinecraftLoading(FMLClientHandler.java:252)
    at net.minecraft.client.Minecraft.init(Minecraft.java:467)
    at net.minecraft.client.Minecraft.run(Minecraft.java:3931)
    at net.minecraft.client.main.Main.main(SourceFile:123)
    at sun.reflect.NativeMethodAccessorImpl.invoke0(Native Method)
    at sun.reflect.NativeMethodAccessorImpl.invoke(NativeMethodAccessorImpl.java:62)
    at sun.reflect.DelegatingMethodAccessorImpl.invoke(DelegatingMethodAccessorImpl.java:43)
    at java.lang.reflect.Method.invoke(Method.java:498)
    at net.minecraft.launchwrapper.Launch.launch(Launch.java:135)
    at net.minecraft.launchwrapper.Launch.main(Launch.java:28)
    at sun.reflect.NativeMethodAccessorImpl.invoke0(Native Method)
    at sun.reflect.NativeMethodAccessorImpl.invoke(NativeMethodAccessorImpl.java:62)
    at sun.reflect.DelegatingMethodAccessorImpl.invoke(DelegatingMethodAccessorImpl.java:43)
    at java.lang.reflect.Method.invoke(Method.java:498)
    at org.multimc.onesix.OneSixLauncher.launchWithMainClass(OneSixLauncher.java:196)
    at org.multimc.onesix.OneSixLauncher.launch(OneSixLauncher.java:231)
    at org.multimc.EntryPoint.listen(EntryPoint.java:143)
    at org.multimc.EntryPoint.main(EntryPoint.java:34)


A detailed walkthrough of the error, its code path and all known details is as follows:
---------------------------------------------------------------------------------------

-- System Details --
  Minecraft Version: 1.12.2
  Operating System: Linux (amd64) version 5.3.0-20-generic
  Java Version: 1.8.0_232-ea, Private Build
  Java VM Version: OpenJDK 64-Bit Server VM (mixed mode), Private Build
  Memory: 5301540400 bytes (5055 MB) / 7799308288 bytes (7438 MB) up to 7799308288 bytes (7438 MB)
  JVM Flags: 2 total; -Xms6144m -Xmx8192m
  IntCache: cache: 0, tcache: 0, allocated: 0, tallocated: 0
  FML: MCP 9.42 Powered by Forge 14.23.5.2847 269 mods loaded, 269 mods active
       States: 'U' = Unloaded 'L' = Loaded 'C' = Constructed 'H' = Pre-initialized 'I' = Initialized 'J' = Post-initialized 'A' = Available 'D' = Disabled 'E' = Errored
       
       | State | ID                                | Version                  | Source                                             | Signature                                |
       |:----- |:--------------------------------- |:------------------------ |:-------------------------------------------------- |:---------------------------------------- |
       | LCH   | minecraft                         | 1.12.2                   | minecraft.jar                                      | None                                     |
       | LCH   | mcp                               | 9.42                     | minecraft.jar                                      | None                                     |
       | LCH   | FML                               | 8.0.99.99                | forge-1.12.2-14.23.5.2847-universal.jar            | None                                     |
       | LCH   | forge                             | 14.23.5.2847             | forge-1.12.2-14.23.5.2847-universal.jar            | None                                     |
       | LCH   | creativecoredummy                 | 1.0.0                    | minecraft.jar                                      | None                                     |
       | LCH   | ivtoolkit                         | 1.3.3-1.12               | minecraft.jar                                      | None                                     |
       | LCH   | smoothfontcore                    | mc1.12.2-2.1.1           | minecraft.jar                                      | None                                     |
       | LCH   | openmodscore                      | 0.12.2                   | minecraft.jar                                      | None                                     |
       | LCH   | foamfixcore                       | 7.7.4                    | minecraft.jar                                      | None                                     |
       | LCH   | opencomputers|core                | 1.7.4.153                | minecraft.jar                                      | None                                     |
       | LCH   | smoothfont                        | mc1.12.2-2.1.1           | SmoothFont-mc1.12.2-2.1.1.jar                      | None                                     |
       | LCH   | fastbench                         | 1.7.2                    | FastWorkbench-1.12.2-1.7.2.jar                     | None                                     |
       | LCH   | actuallyadditions                 | 1.12.2-r151              | ActuallyAdditions-1.12.2-r151.jar                  | None                                     |
       | LCH   | baubles                           | 1.5.2                    | Baubles-1.12-1.5.2.jar                             | None                                     |
       | LCH   | actuallybaubles                   | 1.1                      | ActuallyBaubles-1.12-1.1.jar                       | None                                     |
       | LCH   | akashictome                       | 1.2-12                   | AkashicTome-1.2-12.jar                             | None                                     |
       | LCH   | antiqueatlas                      | 4.6.3                    | antiqueatlas-1.12.2-4.6.3.jar                      | None                                     |
       | LCH   | antiqueatlasoverlay               | 1.2                      | antiqueatlas-1.12.2-4.6.3.jar                      | None                                     |
       | LCH   | applecore                         | 3.2.0                    | AppleCore-mc1.12.2-3.2.0.jar                       | None                                     |
       | LCH   | crafttweaker                      | 4.1.19                   | CraftTweaker2-1.12-4.1.19.jar                      | None                                     |
       | LCH   | mtlib                             | 3.0.6                    | MTLib-3.0.6.jar                                    | None                                     |
       | LCH   | modtweaker                        | 4.0.17                   | modtweaker-4.0.17.jar                              | None                                     |
       | LCH   | jei                               | 4.15.0.291               | jei_1.12.2-4.15.0.291.jar                          | None                                     |
       | LCH   | appleskin                         | 1.0.9                    | AppleSkin-mc1.12-1.0.9.jar                         | None                                     |
       | LCH   | aquaculture                       | 1.6.8                    | Aquaculture-1.12.2-1.6.8.jar                       | None                                     |
       | LCH   | architecturecraft                 | @VERSION@                | architecturecraft-1.12-3.98.jar                    | None                                     |
       | LCH   | aroma1997core                     | 2.0.0.2                  | Aroma1997Core-1.12.2-2.0.0.2.jar                   | dfbfe4c473253d8c5652417689848f650b2cbe32 |
       | LCH   | aroma1997sdimension               | 2.0.0.2                  | Aroma1997s-Dimensional-World-1.12.2-2.0.0.2.jar    | dfbfe4c473253d8c5652417689848f650b2cbe32 |
       | LCH   | astralsorcery                     | 1.10.20                  | astralsorcery-1.12.2-1.10.20.jar                   | a0f0b759d895c15ceb3e3bcb5f3c2db7c582edf0 |
       | LCH   | morphtool                         | 1.2-21                   | Morph-o-Tool-1.2-21.jar                            | None                                     |
       | LCH   | quark                             | r1.6-177                 | Quark-r1.6-177.jar                                 | None                                     |
       | LCH   | autoreglib                        | 1.3-32                   | AutoRegLib-1.3-32.jar                              | None                                     |
       | LCH   | badwithernocookiereloaded         | 1.12.2-3.3.16            | badwithernocookiereloaded-1.12.2-3.3.16.jar        | None                                     |
       | LCH   | waila                             | 1.8.26                   | Hwyla-1.8.26-B41_1.12.2.jar                        | None                                     |
       | LCH   | bdsandm                           | 0.0.24                   | BarrelsDrumsStorageAndMore-0.0.24.jar              | None                                     |
       | LCH   | base                              | 3.13.0                   | base-1.12.2-3.13.0.jar                             | None                                     |
       | LCH   | bdlib                             | 1.14.3.12                | bdlib-1.14.3.12-mc1.12.2.jar                       | None                                     |
       | LCH   | betteradvancements                | 0.1.0.77                 | BetterAdvancements-1.12.2-0.1.0.77.jar             | None                                     |
       | LCH   | betterbuilderswands               | 0.11.1                   | BetterBuildersWands-1.12-0.11.1.245+69d0d70.jar    | None                                     |
       | LCH   | bibliocraft                       | 2.4.5                    | BiblioCraft[v2.4.5][MC1.12.2].jar                  | None                                     |
       | LCH   | biomesoplenty                     | 7.0.1.2441               | BiomesOPlenty-1.12.2-7.0.1.2441-universal.jar      | None                                     |
       | LCH   | blockcraftery                     | 1.12.2-1.3.1             | blockcraftery-1.12.2-1.3.1.jar                     | None                                     |
       | LCH   | bonsaitrees                       | 1.1.3                    | bonsaitrees-1.1.3-b156.jar                         | None                                     |
       | LCH   | bookshelf                         | 2.3.585                  | Bookshelf-1.12.2-2.3.585.jar                       | d476d1b22b218a10d845928d1665d45fce301b27 |
       | LCH   | botania                           | r1.10-362                | Botania+r1.10-362.jar                              | None                                     |
       | LCH   | bountifulbaubles                  | 0.0.1                    | Bountiful+Baubles-1.12.2-0.1.3.jar                 | None                                     |
       | LCH   | codechickenlib                    | 3.2.3.358                | CodeChickenLib-1.12.2-3.2.3.358-universal.jar      | f1850c39b2516232a2108a7bd84d1cb5df93b261 |
       | LCH   | redstoneflux                      | 2.1.0                    | RedstoneFlux-1.12-2.1.0.6-universal.jar            | 8a6abf2cb9e141b866580d369ba6548732eff25f |
       | LCH   | brandonscore                      | 2.4.17                   | BrandonsCore-1.12.2-2.4.17.208-universal.jar       | None                                     |
       | LCH   | buildcraftlib                     | 7.99.24.3                | buildcraft-all-7.99.24.3.jar                       | None                                     |
       | LCH   | buildcraftcore                    | 7.99.24.3                | buildcraft-all-7.99.24.3.jar                       | None                                     |
       | LCH   | buildcraftbuilders                | 7.99.24.3                | buildcraft-all-7.99.24.3.jar                       | None                                     |
       | LCH   | buildcrafttransport               | 7.99.24.3                | buildcraft-all-7.99.24.3.jar                       | None                                     |
       | LCH   | buildcraftsilicon                 | 7.99.24.3                | buildcraft-all-7.99.24.3.jar                       | None                                     |
       | LCH   | buildcraftenergy                  | 7.99.24.3                | buildcraft-all-7.99.24.3.jar                       | None                                     |
       | LCH   | reborncore                        | 3.16.4.478               | RebornCore-1.12.2-3.16.4.478-universal.jar         | 8727a3141c8ec7f173b87aa78b9b9807867c4e6b |
       | LCH   | techreborn                        | 2.24.3.1043              | TechReborn-1.12.2-2.24.3.1043-universal.jar        | 8727a3141c8ec7f173b87aa78b9b9807867c4e6b |
       | LCH   | forestry                          | 5.8.2.387                | forestry_1.12.2-5.8.2.387.jar                      | None                                     |
       | LCH   | tesla                             | 1.0.63                   | Tesla-1.12.2-1.0.63.jar                            | d476d1b22b218a10d845928d1665d45fce301b27 |
       | LCH   | theoneprobe                       | 1.4.28                   | theoneprobe-1.12-1.4.28.jar                        | None                                     |
       | LCH   | buildcraftcompat                  | 7.99.24.3                | buildcraft-all-7.99.24.3.jar                       | None                                     |
       | LCH   | buildcraftfactory                 | 7.99.24.3                | buildcraft-all-7.99.24.3.jar                       | None                                     |
       | LCH   | buildcraftrobotics                | 7.99.24.3                | buildcraft-all-7.99.24.3.jar                       | None                                     |
       | LCH   | buildinggadgets                   | 2.7.4                    | BuildingGadgets-2.7.4.jar                          | None                                     |
       | LCH   | carryon                           | 1.12.3                   | CarryOn+MC1.12.2+v1.12.3.jar                       | 55e88f24d04398481ae6f1ce76f65fd776f14227 |
       | LCH   | ctm                               | MC1.12.2-1.0.0.29        | CTM-MC1.12.2-1.0.0.29.jar                          | None                                     |
       | LCH   | chisel                            | MC1.12.2-1.0.1.44        | Chisel-MC1.12.2-1.0.1.44.jar                       | None                                     |
       | LCH   | endercore                         | 1.12.2-0.5.73            | EnderCore-1.12.2-0.5.73.jar                        | None                                     |
       | LCH   | cofhcore                          | 4.6.3                    | CoFHCore-1.12.2-4.6.3.27-universal.jar             | None                                     |
       | LCH   | cofhworld                         | 1.3.1                    | CoFHWorld-1.12.2-1.3.1.7-universal.jar             | 8a6abf2cb9e141b866580d369ba6548732eff25f |
       | LCH   | thermalfoundation                 | 2.6.3                    | ThermalFoundation-1.12.2-2.6.3.27-universal.jar    | 8a6abf2cb9e141b866580d369ba6548732eff25f |
       | LCH   | draconicevolution                 | 2.3.24                   | Draconic-Evolution-1.12.2-2.3.24.349-universal.jar | None                                     |
       | LCH   | thermalexpansion                  | 5.5.4                    | ThermalExpansion-1.12.2-5.5.4.43-universal.jar     | 8a6abf2cb9e141b866580d369ba6548732eff25f |
       | LCH   | enderio                           | 5.1.52                   | EnderIO-1.12.2-5.1.52.jar                          | None                                     |
       | LCH   | enderiointegrationtic             | 5.1.52                   | EnderIO-1.12.2-5.1.52.jar                          | None                                     |
       | LCH   | mantle                            | 1.12-1.3.3.55            | Mantle-1.12-1.3.3.55.jar                           | None                                     |
       | LCH   | twilightforest                    | 3.10.1013                | twilightforest-1.12.2-3.10.1013-universal.jar      | None                                     |
       | LCH   | tconstruct                        | 1.12.2-2.13.0.171        | TConstruct-1.12.2-2.13.0.171.jar                   | None                                     |
       | LCH   | ceramics                          | 1.12-1.3.7               | Ceramics-1.12-1.3.7.jar                            | None                                     |
       | LCH   | chameleon                         | 1.12-4.1.3               | Chameleon-1.12-4.1.3.jar                           | None                                     |
       | LCH   | chesttransporter                  | 2.8.8                    | ChestTransporter-1.12.2-2.8.8.jar                  | None                                     |
       | LCH   | chiselsandbits                    | 14.33                    | chiselsandbits-14.33.jar                           | None                                     |
       | LCH   | chunkanimator                     | 1.2                      | ChunkAnimator-MC1.12-1.2.jar                       | None                                     |
       | LCH   | clienttweaks                      | 3.1.11                   | ClientTweaks_1.12.2-3.1.11.jar                     | None                                     |
       | LCH   | clumps                            | 3.1.2                    | Clumps-3.1.2.jar                                   | None                                     |
       | LCH   | morpheus                          | 1.12.2-3.5.106           | Morpheus-1.12.2-3.5.106.jar                        | None                                     |
       | LCH   | comforts                          | 1.4.1.2                  | comforts-1.12.2-1.4.1.2.jar                        | 5d5b8aee896a4f5ea3f3114784742662a67ad32f |
       | LCH   | cyclopscore                       | 1.5.1                    | CyclopsCore-1.12.2-1.5.1.jar                       | bd0353b3e8a2810d60dd584e256e364bc3bedd44 |
       | LCH   | commoncapabilities                | 2.4.4                    | CommonCapabilities-1.12.2-2.4.4.jar                | bd0353b3e8a2810d60dd584e256e364bc3bedd44 |
       | LCH   | refinedstorage                    | 1.6.15                   | refinedstorage-1.6.15.jar                          | 57893d5b90a7336e8c63fe1c1e1ce472c3d59578 |
       | LCH   | compactmachines3                  | 3.0.18                   | compactmachines3-1.12.2-3.0.18-b278.jar            | None                                     |
       | LCH   | conarm                            | 1.2.5.3                  | conarm-1.12.2-1.2.5.3.jar                          | 2484ef4d131fdc0dca0647aa21b7b944ddb935a1 |
       | LCH   | controlling                       | 3.0.7                    | Controlling-3.0.7.jar                              | None                                     |
       | LCH   | cookingforblockheads              | 6.4.71                   | CookingForBlockheads_1.12.2-6.4.71.jar             | None                                     |
       | LCH   | craftingtweaks                    | 8.1.9                    | CraftingTweaks_1.12.2-8.1.9.jar                    | None                                     |
       | LCH   | ctgui                             | 1.0.0                    | CraftTweaker2-1.12-4.1.19.jar                      | None                                     |
       | LCH   | crafttweakerjei                   | 2.0.3                    | CraftTweaker2-1.12-4.1.19.jar                      | None                                     |
       | LCH   | creativecore                      | 1.9.9                    | CreativeCore_v1.9.71_mc1.12.2.jar                  | None                                     |
       | LCH   | cucumber                          | 1.1.3                    | Cucumber-1.12.2-1.1.3.jar                          | None                                     |
       | LCH   | cyclicmagic                       | 1.19.18                  | Cyclic-1.12.2-1.19.18.jar                          | None                                     |
       | LCH   | darkutils                         | 1.8.226                  | DarkUtils-1.12.2-1.8.226.jar                       | d476d1b22b218a10d845928d1665d45fce301b27 |
       | LCH   | ptrmodellib                       | 1.0.4                    | PTRLib-1.0.4.jar                                   | None                                     |
       | LCH   | props                             | 2.6.3                    | Decocraft-2.6.3_1.12.2.jar                         | None                                     |
       | LCH   | journeymap                        | 1.12.2-5.5.5             | journeymap-1.12.2-5.5.5.jar                        | None                                     |
       | LCH   | defaultoptions                    | 9.2.8                    | DefaultOptions_1.12.2-9.2.8.jar                    | None                                     |
       | LCH   | disenchanter                      | 1.6                      | disenchanter-[1.12]1.6.jar                         | None                                     |
       | LCH   | orelib                            | 3.6.0.1                  | OreLib-1.12.2-3.6.0.1.jar                          | 7a2128d395ad96ceb9d9030fbd41d035b435753a |
       | LCH   | dsurround                         | 3.6.0.2                  | DynamicSurroundings-1.12.2-3.6.0.2.jar             | 7a2128d395ad96ceb9d9030fbd41d035b435753a |
       | LCH   | elevatorid                        | 1.3.12                   | ElevatorMod-1.12.2-1.3.12.jar                      | None                                     |
       | LCH   | enchdesc                          | 1.1.15                   | EnchantmentDescriptions-1.12.2-1.1.15.jar          | d476d1b22b218a10d845928d1665d45fce301b27 |
       | LCH   | enderiobase                       | 5.1.52                   | EnderIO-1.12.2-5.1.52.jar                          | None                                     |
       | LCH   | enderioconduits                   | 5.1.52                   | EnderIO-1.12.2-5.1.52.jar                          | None                                     |
       | LCH   | enderioconduitsappliedenergistics | 5.1.52                   | EnderIO-1.12.2-5.1.52.jar                          | None                                     |
       | LCH   | opencomputers                     | 1.7.4.153                | OpenComputers-MC1.12.2-1.7.4.153.jar               | None                                     |
       | LCH   | enderioconduitsopencomputers      | 5.1.52                   | EnderIO-1.12.2-5.1.52.jar                          | None                                     |
       | LCH   | enderioconduitsrefinedstorage     | 5.1.52                   | EnderIO-1.12.2-5.1.52.jar                          | None                                     |
       | LCH   | enderiointegrationforestry        | 5.1.52                   | EnderIO-1.12.2-5.1.52.jar                          | None                                     |
       | LCH   | enderiointegrationticlate         | 5.1.52                   | EnderIO-1.12.2-5.1.52.jar                          | None                                     |
       | LCH   | ftblib                            | 5.4.4.4                  | FTBLib-5.4.4.4.jar                                 | None                                     |
       | LCH   | enderiomachines                   | 5.1.52                   | EnderIO-1.12.2-5.1.52.jar                          | None                                     |
       | LCH   | enderiopowertools                 | 5.1.52                   | EnderIO-1.12.2-5.1.52.jar                          | None                                     |
       | LCH   | enderstorage                      | 2.4.6.137                | EnderStorage-1.12.2-2.4.6.137-universal.jar        | f1850c39b2516232a2108a7bd84d1cb5df93b261 |
       | LCH   | energyconverters                  | 1.3.6.24                 | energyconverters_1.12.2-1.3.6.24.jar               | None                                     |
       | LCH   | valkyrielib                       | 1.12.2-2.0.20.1          | valkyrielib-1.12.2-2.0.20.1.jar                    | None                                     |
       | LCH   | environmentaltech                 | 1.12.2-2.0.20.1          | environmentaltech-1.12.2-2.0.20.1.jar              | None                                     |
       | LCH   | mcmultipart                       | 2.5.3                    | MCMultiPart-2.5.3.jar                              | None                                     |
       | LCH   | mekanism                          | 1.12.2-9.8.2.389         | Mekanism-1.12.2-9.8.2.389.jar                      | None                                     |
       | LCH   | immersiveengineering              | 0.12-92                  | ImmersiveEngineering-0.12-92.jar                   | 4cb49fcde3b43048c9889e0a3d083225da926334 |
       | LCH   | exchangers                        | 1.12.2-2.8               | Exchangers-1.12.2-2.8.jar                          | 4ffa87db52cf086d00ecc4853a929367b1c39b5c |
       | LCH   | extendedcrafting                  | 1.5.6                    | ExtendedCrafting-1.12.2-1.5.6.jar                  | None                                     |
       | LCH   | extrautils2                       | 1.0                      | extrautils2-1.12-1.9.9.jar                         | None                                     |
       | LCH   | zerocore                          | 1.12.2-0.1.2.8           | zerocore-1.12.2-0.1.2.8.jar                        | None                                     |
       | LCH   | bigreactors                       | 1.12.2-0.4.5.67          | ExtremeReactors-1.12.2-0.4.5.67.jar                | None                                     |
       | LCH   | fbp                               | 2.4.1                    | FancyBlockParticles-1.12.x-2.4.1.jar               | None                                     |
       | LCH   | farmingforblockheads              | 3.1.28                   | FarmingForBlockheads_1.12.2-3.1.28.jar             | None                                     |
       | LCH   | fastfurnace                       | 1.3.1                    | FastFurnace-1.12.2-1.3.1.jar                       | None                                     |
       | LCH   | fastleafdecay                     | v14                      | FastLeafDecay-v14.jar                              | None                                     |
       | LCH   | flatcoloredblocks                 | mc1.12-6.8               | flatcoloredblocks-mc1.12-6.8.jar                   | None                                     |
       | LCH   | sonarcore                         | 5.0.19                   | sonarcore-1.12.2-5.0.19-20.jar                     | None                                     |
       | LCH   | fluxnetworks                      | 4.0.13                   | fluxnetworks-1.12.2-4.0.13-30.jar                  | None                                     |
       | LCH   | foamfix                           | 0.10.8-1.12.2            | foamfix-0.10.8-1.12.2.jar                          | None                                     |
       | LCH   | forgeendertech                    | 1.12.2-4.4.24.0          | ForgeEndertech-1.12.2-4.4.24.0-build.0421.jar      | None                                     |
       | LCH   | forgelin                          | 1.8.4                    | Forgelin-1.8.4.jar                                 | None                                     |
       | LCH   | forgemultipartcbe                 | 2.6.2.83                 | ForgeMultipart-1.12.2-2.6.2.83-universal.jar       | f1850c39b2516232a2108a7bd84d1cb5df93b261 |
       | LCH   | microblockcbe                     | 2.6.2.83                 | ForgeMultipart-1.12.2-2.6.2.83-universal.jar       | None                                     |
       | LCH   | minecraftmultipartcbe             | 2.6.2.83                 | ForgeMultipart-1.12.2-2.6.2.83-universal.jar       | None                                     |
       | LCH   | ftbbackups                        | 1.1.0.1                  | FTBBackups-1.1.0.1.jar                             | None                                     |
       | LCH   | ftbutilities                      | 5.4.0.122                | FTBUtilities-5.4.0.122.jar                         | None                                     |
       | LCH   | cfm                               | 6.3.1                    | furniture-6.3.1-1.12.2.jar                         | None                                     |
       | LCH   | gendustry                         | 1.6.5.8                  | gendustry-1.6.5.8-mc1.12.2.jar                     | None                                     |
       | LCH   | advgenerators                     | 0.9.20.12                | generators-0.9.20.12-mc1.12.2.jar                  | None                                     |
       | LCH   | gravestone                        | 1.10.3                   | gravestone-1.10.3.jar                              | None                                     |
       | LCH   | guideapi                          | 1.12-2.1.8-63            | Guide-API-1.12-2.1.8-63.jar                        | None                                     |
       | LCH   | ichunutil                         | 7.2.2                    | iChunUtil-1.12.2-7.2.2.jar                         | 4db5c2bd1b556f252a5b8b54b256d381b2a0a6b8 |
       | LCH   | immersivecables                   | 1.3.2                    | ImmersiveCables-1.12.2-1.3.2.jar                   | None                                     |
       | LCH   | immersivepetroleum                | 1.1.9                    | immersivepetroleum-1.12.2-1.1.9.jar                | None                                     |
       | LCH   | teslacorelib                      | 1.0.15                   | tesla-core-lib-1.12.2-1.0.15.jar                   | d476d1b22b218a10d845928d1665d45fce301b27 |
       | LCH   | industrialforegoing               | 1.12.2-1.12.2            | industrialforegoing-1.12.2-1.12.13-237.jar         | None                                     |
       | LCH   | integrateddynamics                | 1.1.0                    | IntegratedDynamics-1.12.2-1.1.0.jar                | bd0353b3e8a2810d60dd584e256e364bc3bedd44 |
       | LCH   | integrateddynamicscompat          | 1.0.0                    | IntegratedDynamics-1.12.2-1.1.0.jar                | None                                     |
       | LCH   | mysticalagriculture               | 1.7.5                    | MysticalAgriculture-1.12.2-1.7.5.jar               | None                                     |
       | LCH   | mysticalagradditions              | 1.3.2                    | MysticalAgradditions-1.12.2-1.3.2.jar              | None                                     |
       | LCH   | nuclearcraft                      | 2.18k                    | NuclearCraft-2.18k-1.12.2.jar                      | None                                     |
       | LCH   | oreberries                        | 0.5.0                    | oreberries-1.12.x-0.5.0.jar                        | None                                     |
       | LCH   | harvestcraft                      | 1.12.2zb                 | Pam's+HarvestCraft+1.12.2zf.jar                    | None                                     |
       | LCH   | mcjtylib_ng                       | 3.5.4                    | mcjtylib-1.12-3.5.4.jar                            | None                                     |
       | LCH   | rftools                           | 7.72                     | rftools-1.12-7.72.jar                              | None                                     |
       | LCH   | rustic                            | 1.1.1                    | rustic-1.1.1.jar                                   | None                                     |
       | LCH   | integrationforegoing              | 1.12.2-1.9               | IntegrationForegoing-1.12.2-1.9.jar                | 4ffa87db52cf086d00ecc4853a929367b1c39b5c |
       | LCH   | inventorysorter                   | 1.13.3+57                | inventorysorter-1.12.2-1.13.3+57.jar               | None                                     |
       | LCH   | inventorytweaks                   | 1.63+release.109.220f184 | InventoryTweaks-1.63.jar                           | 55d2cd4f5f0961410bf7b91ef6c6bf00a766dcbe |
       | LCH   | ironbackpacks                     | 1.12.2-3.0.8-12          | IronBackpacks-1.12.2-3.0.8-12.jar                  | None                                     |
       | LCH   | ironchest                         | 1.12.2-7.0.67.844        | ironchest-1.12.2-7.0.72.847.jar                    | None                                     |
       | LCH   | jeibees                           | 0.9.0.5                  | jeibees-0.9.0.5-mc1.12.2.jar                       | None                                     |
       | LCH   | jeiintegration                    | 1.5.1.36                 | jeiintegration_1.12.2-1.5.1.36.jar                 | None                                     |
       | LCH   | jeresources                       | 0.9.2.60                 | JustEnoughResources-1.12.2-0.9.2.60.jar            | None                                     |
       | LCH   | kleeslabs                         | 5.4.12                   | KleeSlabs_1.12.2-5.4.12.jar                        | None                                     |
       | LCH   | levelup2                          | ${version}               | Level+Up!+2-1.1.23-1.12.jar                        | None                                     |
       | LCH   | lunatriuscore                     | 1.2.0.42                 | LunatriusCore-1.12.2-1.2.0.42-universal.jar        | None                                     |
       | LCH   | magicbees                         | 1.0                      | MagicBees-1.12.2-3.1.10.jar                        | None                                     |
       | LCH   | malisiscore                       | 1.12.2-6.5.1-SNAPSHOT    | malisiscore-1.12.2-6.5.1.jar                       | None                                     |
       | LCH   | malisisdoors                      | 1.12.2-7.3.0             | malisisdoors-1.12.2-7.3.0.jar                      | None                                     |
       | LCH   | mekanismgenerators                | 1.12.2-9.8.2.389         | MekanismGenerators-1.12.2-9.8.2.389.jar            | None                                     |
       | LCH   | mekanismtools                     | 1.12.2-9.8.2.389         | MekanismTools-1.12.2-9.8.2.389.jar                 | None                                     |
       | LCH   | mob_grinding_utils                | 0.3.13                   | MobGrindingUtils-0.3.13.jar                        | None                                     |
       | LCH   | modnametooltip                    | 1.10.1                   | modnametooltip_1.12.2-1.10.1.jar                   | None                                     |
       | LCH   | moreoverlays                      | 1.15.1                   | moreoverlays-1.15.1-mc1.12.2.jar                   | None                                     |
       | LCH   | mousetweaks                       | 2.10                     | MouseTweaks-2.10-mc1.12.2.jar                      | None                                     |
       | LCH   | mputils                           | 1.5.6                    | MPUtils-1.12.2-1.5.7.jar                           | None                                     |
       | LCH   | mpbasic                           | 1.4.7                    | mpbasic-1.12.2-1.4.11.jar                          | None                                     |
       | LCH   | mrtjpcore                         | 2.1.4.43                 | MrTJPCore-1.12.2-2.1.4.43-universal.jar            | None                                     |
       | LCH   | naturescompass                    | 1.6.0                    | NaturesCompass-1.12.2-1.6.0.jar                    | None                                     |
       | LCH   | neat                              | 1.4-17                   | Neat+1.4-17.jar                                    | None                                     |
       | LCH   | norecipebook                      | 1.2.1                    | noRecipeBook_v1.2.2formc1.12.2.jar                 | None                                     |
       | LCH   | openmods                          | 0.12.2                   | OpenModsLib-1.12.2-0.12.2.jar                      | d2a9a8e8440196e26a268d1f3ddc01b2e9c572a5 |
       | LCH   | openblocks                        | 1.8.1                    | OpenBlocks-1.12.2-1.8.1.jar                        | d2a9a8e8440196e26a268d1f3ddc01b2e9c572a5 |
       | LCH   | oreexcavation                     | 1.4.143                  | OreExcavation-1.4.143.jar                          | None                                     |
       | LCH   | p455w0rdslib                      | 2.2.156                  | p455w0rdslib-1.12.2-2.2.156.jar                    | 186bc454cd122c9c2f1aa4f95611254bcc543363 |
       | LCH   | patchouli                         | 1.0-20                   | Patchouli-1.0-20.jar                               | None                                     |
       | LCH   | placebo                           | 1.6.0                    | Placebo-1.12.2-1.6.0.jar                           | None                                     |
       | LCH   | projectred-core                   | 4.9.4.120                | ProjectRed-1.12.2-4.9.4.120-Base.jar               | None                                     |
       | LCH   | redstonearsenal                   | 2.6.3                    | RedstoneArsenal-1.12.2-2.6.3.18-universal.jar      | 8a6abf2cb9e141b866580d369ba6548732eff25f |
       | LCH   | thermaldynamics                   | 2.5.5                    | ThermalDynamics-1.12.2-2.5.5.21-universal.jar      | 8a6abf2cb9e141b866580d369ba6548732eff25f |
       | LCH   | simplyjetpacks                    | 2.2.14.67                | SimplyJetpacks2-1.12.2-2.2.14.67.jar               | None                                     |
       | LCH   | plustic                           | 7.1.6.1                  | plustic-7.1.6.1.jar                                | None                                     |
       | LCH   | pneumaticcraft                    | 1.12.2-0.11.7-375        | pneumaticcraft-repressurized-1.12.2-0.11.7-375.jar | None                                     |
       | LCH   | potioncore                        | 1.8_for_1.12.2           | PotionCore-1.8_for_1.12.2.jar                      | None                                     |
       | LCH   | teslathingies                     | 1.0.15                   | powered-thingies-1.12.2-1.0.15.jar                 | d476d1b22b218a10d845928d1665d45fce301b27 |
       | LCH   | practicallogistics2               | 3.0.8                    | practicallogistics2-1.12.2-3.0.8-11.jar            | None                                     |
       | LCH   | projectred-compat                 | 1.0                      | ProjectRed-1.12.2-4.9.4.120-compat.jar             | None                                     |
       | LCH   | projectred-integration            | 4.9.4.120                | ProjectRed-1.12.2-4.9.4.120-integration.jar        | None                                     |
       | LCH   | projectred-transmission           | 4.9.4.120                | ProjectRed-1.12.2-4.9.4.120-integration.jar        | None                                     |
       | LCH   | projectred-fabrication            | 4.9.4.120                | ProjectRed-1.12.2-4.9.4.120-fabrication.jar        | None                                     |
       | LCH   | projectred-illumination           | 4.9.4.120                | ProjectRed-1.12.2-4.9.4.120-lighting.jar           | None                                     |
       | LCH   | projectred-expansion              | 4.9.4.120                | ProjectRed-1.12.2-4.9.4.120-mechanical.jar         | None                                     |
       | LCH   | projectred-relocation             | 4.9.4.120                | ProjectRed-1.12.2-4.9.4.120-mechanical.jar         | None                                     |
       | LCH   | projectred-transportation         | 4.9.4.120                | ProjectRed-1.12.2-4.9.4.120-mechanical.jar         | None                                     |
       | LCH   | projectred-exploration            | 4.9.4.120                | ProjectRed-1.12.2-4.9.4.120-world.jar              | None                                     |
       | LCH   | randomthings                      | 4.2.7.3                  | RandomThings-MC1.12.2-4.2.7.3.jar                  | d72e0dd57935b3e9476212aea0c0df352dd76291 |
       | LCH   | rangedpumps                       | 0.5                      | rangedpumps-0.5.jar                                | None                                     |
       | LCH   | rebornstorage                     | 1.0.0                    | RebornStorage-1.12.2-3.3.4.85.jar                  | None                                     |
       | LCH   | reccomplex                        | 1.4.8.2                  | RecurrentComplex-1.4.8.2.jar                       | None                                     |
       | LCH   | refinedstorageaddons              | 0.4.4                    | refinedstorageaddons-0.4.4.jar                     | None                                     |
       | LCH   | resourceloader                    | 1.5.3                    | ResourceLoader-MC1.12.1-1.5.3.jar                  | d72e0dd57935b3e9476212aea0c0df352dd76291 |
       | LCH   | rftoolscontrol                    | 2.0.2                    | rftoolsctrl-1.12-2.0.2.jar                         | None                                     |
       | LCH   | rftoolsdim                        | 5.71                     | rftoolsdim-1.12-5.71.jar                           | None                                     |
       | LCH   | rftoolspower                      | 1.2.0                    | rftoolspower-1.12-1.2.0.jar                        | None                                     |
       | LCH   | rockhounding_core                 | 3.22                     | rockhounding_core-1.12.2-3.22.jar                  | None                                     |
       | LCH   | gbook                             | 2.9.2                    | Guidebook-1.12.2-2.9.2.jar                         | None                                     |
       | LCH   | rockhounding_chemistry            | 1.12.2-3.46              | rockhounding_chemistry-1.12.2-3.46.jar             | None                                     |
       | LCH   | roughtweaks                       | 1.0                      | roughTweaks0.2.4-1.12.2.jar                        | None                                     |
       | LCH   | silentlib                         | 3.0.13                   | SilentLib-1.12.2-3.0.13+167.jar                    | None                                     |
       | LCH   | simplegenerators                  | 1.12.2-2.0.20.2          | simplegenerators-1.12.2-2.0.20.2.jar               | None                                     |
       | LCH   | solarflux                         | 4.35r                    | SolarFluxReborn_1.12.2-4.35r.jar                   | 4d7b29cd19124e986da685107d16ce4b49bc0a97 |
       | LCH   | soundfilters                      | 0.11_for_1.12            | SoundFilters-0.11_for_1.12.jar                     | None                                     |
       | LCH   | stevescarts                       | 2.4.31.135               | StevesCarts-1.12.2-2.4.31.135.jar                  | None                                     |
       | LCH   | stg                               | 1.12.2-1.2.3             | stg-1.12.2-1.2.3.jar                               | None                                     |
       | LCH   | storagedrawers                    | 1.12.2-5.4.0             | StorageDrawers-1.12.2-5.4.0.jar                    | None                                     |
       | LCH   | thermalcultivation                | 0.3.3                    | ThermalCultivation-1.12.2-0.3.3.12-universal.jar   | 8a6abf2cb9e141b866580d369ba6548732eff25f |
       | LCH   | thermalinnovation                 | 0.3.3                    | ThermalInnovation-1.12.2-0.3.3.12-universal.jar    | 8a6abf2cb9e141b866580d369ba6548732eff25f |
       | LCH   | tcomplement                       | 1.12.2-0.4.2             | TinkersComplement-1.12.2-0.4.2.jar                 | None                                     |
       | LCH   | tinkertoolleveling                | 1.12.2-1.1.0.DEV.b23e769 | TinkerToolLeveling-1.12.2-1.1.0.jar                | None                                     |
       | LCH   | tp                                | 3.2.34                   | tinyprogressions-1.12.2-3.3.34-Release.jar         | None                                     |
       | LCH   | tipthescales                      | 1.0.4                    | TipTheScales-1.12.2-1.0.4.jar                      | None                                     |
       | LCH   | toastcontrol                      | 1.8.1                    | Toast+Control-1.12.2-1.8.1.jar                     | None                                     |
       | LCH   | toolbelt                          | 1.9.12                   | ToolBelt-1.12.2-1.9.12.jar                         | None                                     |
       | LCH   | topaddons                         | 1.12.2-1.12.0            | topaddons-1.12.2-1.12.0.jar                        | None                                     |
       | LCH   | torchmaster                       | 1.8.0.79                 | torchmaster_1.12.2-1.8.0.79.jar                    | 5e9a436b366831c8f54a7e80b015784da69278c6 |
       | LCH   | traverse                          | 1.6.0                    | Traverse-1.12.2-1.6.0-69.jar                       | None                                     |
       | LCH   | universalmodifiers                | 1.12.2-1.0.16.1          | valkyrielib-1.12.2-2.0.20.1.jar                    | None                                     |
       | LCH   | vanillafix                        | 1.0.10-SNAPSHOT          | VanillaFix-1.0.10-99.jar                           | None                                     |
       | LCH   | variedcommodities                 | 1.12.2                   | VariedCommodities_1.12.2(27oct19).jar              | None                                     |
       | LCH   | wailaharvestability               | 1.1.12                   | WailaHarvestability-mc1.12-1.1.12.jar              | None                                     |
       | LCH   | wanionlib                         | 1.12.2-2.4               | WanionLib-1.12.2-2.4.jar                           | None                                     |
       | LCH   | wawla                             | 2.5.273                  | Wawla-1.12.2-2.5.273.jar                           | d476d1b22b218a10d845928d1665d45fce301b27 |
       | LCH   | waystones                         | 4.0.72                   | Waystones_1.12.2-4.0.72.jar                        | None                                     |
       | LCH   | wearablebackpacks                 | 3.1.4                    | WearableBackpacks-1.12.2-3.1.4.jar                 | None                                     |
       | LCH   | xnet                              | 1.8.2                    | xnet-1.12-1.8.2.jar                                | None                                     |
       | LCH   | yabba                             | 1.1.2.54                 | YABBA-1.1.2.54.jar                                 | None                                     |
       | LCH   | ynot                              | 0.2.4                    | YNot-0.2.4.jar                                     | None                                     |
       | LCH   | llibrary                          | 1.7.19                   | llibrary-1.7.19-1.12.2.jar                         | b9f30a813bee3b9dd5652c460310cfcd54f6b7ec |
       | LCH   | techreborn_compat                 | 1.0.0                    | TechReborn-ModCompatibility-1.12.2-1.3.2.64.jar    | 8727a3141c8ec7f173b87aa78b9b9807867c4e6b |
       | LCH   | reauth                            | 3.6.0                    | reauth-3.6.0.jar                                   | daba0ec4df71b6da841768c49fb873def208a1e3 |
       | LCH   | structurize                       | 1.12.2-0.10.124-ALPHA    | structurize-1.12.2-0.10.124-ALPHA.jar              | None                                     |
       | LCH   | minecolonies                      | 1.12.2-0.10.488-RELEASE  | minecolonies-1.12.2-0.10.488-RELEASE-universal.jar | None                                     |
       | LCH   | phosphor-lighting                 | 1.12.2-0.2.6             | phosphor-1.12.2-0.2.6+build50-universal.jar        | f0387d288626cc2d937daa504e74af570c52a2f1 |
       | LCH   | mysticallib                       | 1.12.2-1.4.0             | mysticallib-1.12.2-1.4.0.jar                       | None                                     |
       | LCH   | teslacorelib_registries           | 1.0.15                   | tesla-core-lib-1.12.2-1.0.15.jar                   | None                                     |
       | LCH   | unidict                           | 1.12.2-2.9.3             | UniDict-1.12.2-2.9.3.jar                           | None                                     |
  Loaded coremods (and transformers): AppleCore (AppleCore-mc1.12.2-3.2.0.jar)
                                        squeek.applecore.asm.TransformerModuleHandler
                                      TransformLoader (DynamicSurroundings-1.12.2-3.6.0.2.jar)
                                        
                                      MekanismCoremod (Mekanism-1.12.2-9.8.2.389.jar)
                                        mekanism.coremod.KeybindingMigrationHelper
                                      IELoadingPlugin (ImmersiveEngineering-core-0.12-92.jar)
                                        blusunrize.immersiveengineering.common.asm.IEClassTransformer
                                      p455w0rdc0re (p455w0rdslib-1.12.2-2.2.156.jar)
                                        p455w0rdslib.asm.ClassTransformer
                                      Inventory Tweaks Coremod (InventoryTweaks-1.63.jar)
                                        invtweaks.forge.asm.ContainerTransformer
                                      PhosphorFMLLoadingPlugin (phosphor-1.12.2-0.2.6+build50-universal.jar)
                                        
                                      VanillaFixLoadingPlugin (VanillaFix-1.0.10-99.jar)
                                        
                                      LoadingPlugin (ResourceLoader-MC1.12.1-1.5.3.jar)
                                        lumien.resourceloader.asm.ClassTransformer
                                      MalisisCorePlugin (malisiscore-1.12.2-6.5.1.jar)
                                        
                                      IvToolkit (IvToolkit-1.3.3-1.12.jar)
                                        
                                      CoreMod (Aroma1997Core-1.12.2-2.0.0.2.jar)
                                        
                                      LoadingPlugin (ChunkAnimator-MC1.12-1.2.jar)
                                        lumien.chunkanimator.asm.ClassTransformer
                                      Do not report to Forge! (If you haven't disabled the FoamFix coremod, try disabling it in the config! Note that this bit of text will still appear.) (foamfix-0.10.8-1.12.2.jar)
                                        pl.asie.foamfix.coremod.FoamFixTransformer
                                      CTMCorePlugin (CTM-MC1.12.2-1.0.0.29.jar)
                                        team.chisel.ctm.client.asm.CTMTransformer
                                      BedPatch (bedpatch-2.2-1.12.2.jar)
                                        com.mordenkainen.bedpatch.BedPatchASM
                                      CorePlugin (ForgeEndertech-1.12.2-4.4.24.0-build.0421.jar)
                                        
                                      Quark Plugin (Quark-r1.6-177.jar)
                                        vazkii.quark.base.asm.ClassTransformer
                                      ForgelinPlugin (Forgelin-1.8.4.jar)
                                        
                                      OpenModsCorePlugin (OpenModsLib-1.12.2-0.12.2.jar)
                                        openmods.core.OpenModsClassTransformer
                                      TransformerLoader (OpenComputers-MC1.12.2-1.7.4.153.jar)
                                        li.cil.oc.common.asm.ClassTransformer
                                      EnderCorePlugin (EnderCore-1.12.2-0.5.73-core.jar)
                                        com.enderio.core.common.transform.EnderCoreTransformer
                                        com.enderio.core.common.transform.SimpleMixinPatcher
                                      AstralCore (astralsorcery-1.12.2-1.10.20.jar)
                                        
                                      CorePlugin (SmoothFont-mc1.12.2-2.1.1.jar)
                                        bre.smoothfont.asm.Transformer
                                      llibrary (llibrary-core-1.0.11-1.12.2.jar)
                                        net.ilexiconn.llibrary.server.core.plugin.LLibraryTransformer
                                        net.ilexiconn.llibrary.server.core.patcher.LLibraryRuntimePatcher
                                      CreativePatchingLoader (CreativeCore_v1.9.71_mc1.12.2.jar)
                                        
                                      LoadingPlugin (RandomThings-MC1.12.2-4.2.7.3.jar)
                                        lumien.randomthings.asm.ClassTransformer
  GL info: ' Vendor: 'NVIDIA Corporation' Version: '4.6.0 NVIDIA 440.31' Renderer: 'GeForce GTX 1060 6GB/PCIe/SSE2'
  OpenModsLib class transformers: [llama_null_fix:FINISHED],[horse_base_null_fix:FINISHED],[pre_world_render_hook:FINISHED],[player_render_hook:FINISHED],[horse_null_fix:FINISHED]
  Pulsar/tconstruct loaded Pulses: - TinkerCommons (Enabled/Forced)
                                   - TinkerWorld (Enabled/Not Forced)
                                   - TinkerTools (Enabled/Not Forced)
                                   - TinkerHarvestTools (Enabled/Forced)
                                   - TinkerMeleeWeapons (Enabled/Forced)
                                   - TinkerRangedWeapons (Enabled/Forced)
                                   - TinkerModifiers (Enabled/Forced)
                                   - TinkerSmeltery (Enabled/Not Forced)
                                   - TinkerGadgets (Enabled/Not Forced)
                                   - TinkerOredict (Enabled/Forced)
                                   - TinkerIntegration (Enabled/Forced)
                                   - TinkerFluids (Enabled/Forced)
                                   - TinkerMaterials (Enabled/Forced)
                                   - TinkerModelRegister (Enabled/Forced)
                                   - chiselIntegration (Enabled/Not Forced)
                                   - chiselsandbitsIntegration (Enabled/Not Forced)
                                   - craftingtweaksIntegration (Enabled/Not Forced)
                                   - wailaIntegration (Enabled/Not Forced)
                                   - theoneprobeIntegration (Enabled/Not Forced)
                                   - quarkIntegration (Enabled/Not Forced)
  Pulsar/tcomplement loaded Pulses: - ModuleCommons (Enabled/Forced)
                                    - ModuleMelter (Enabled/Not Forced)
                                    - ModuleArmor (Enabled/Not Forced)
                                    - ModuleSteelworks (Enabled/Not Forced)
                                    - CeramicsPlugin (Enabled/Not Forced)
                                    - ChiselPlugin (Enabled/Not Forced)
                                    - ToolLevelingPlugin (Enabled/Not Forced)
                                    - Oredict (Enabled/Forced)
  List of loaded APIs: * actuallyadditionsapi (34) from ActuallyAdditions-1.12.2-r151.jar
                       * antiqueatlasapi (5.1) from antiqueatlas-1.12.2-4.6.3.jar
                       * AppleCoreAPI (3.2.0) from AppleCore-mc1.12.2-3.2.0.jar
                       * Base|API (1.0.0) from base-1.12.2-3.13.0.jar
                       * Baubles|API (1.4.0.2) from Baubles-1.12-1.5.2.jar
                       * betteradvancements|API (0.1.0.77) from BetterAdvancements-1.12.2-0.1.0.77.jar
                       * BetterWithModsAPI (Beta 0.6) from AppleSkin-mc1.12-1.0.9.jar
                       * bigreactors|API (4.0.1) from ExtremeReactors-1.12.2-0.4.5.67.jar
                       * BotaniaAPI (89) from Bountiful+Baubles-1.12.2-0.1.3.jar
                       * buildcraftapi_blocks (1.0) from buildcraft-all-7.99.24.3.jar
                       * buildcraftapi_boards (2.0) from buildcraft-all-7.99.24.3.jar
                       * buildcraftapi_core (2.2) from buildcraft-all-7.99.24.3.jar
                       * buildcraftapi_crops (1.1) from buildcraft-all-7.99.24.3.jar
                       * buildcraftapi_enums (1.0) from buildcraft-all-7.99.24.3.jar
                       * buildcraftapi_events (2.0) from buildcraft-all-7.99.24.3.jar
                       * buildcraftapi_facades (1.1) from buildcraft-all-7.99.24.3.jar
                       * buildcraftapi_filler (5.0) from buildcraft-all-7.99.24.3.jar
                       * buildcraftapi_fuels (2.0) from buildcraft-all-7.99.24.3.jar
                       * buildcraftapi_gates (4.1) from buildcraft-all-7.99.24.3.jar
                       * buildcraftapi_items (1.1) from buildcraft-all-7.99.24.3.jar
                       * buildcraftapi_library (2.0) from buildcraft-all-7.99.24.3.jar
                       * buildcraftapi_lists (1.0) from buildcraft-all-7.99.24.3.jar
                       * buildcraftapi_power (1.3) from buildcraft-all-7.99.24.3.jar
                       * buildcraftapi_recipes (3.0) from buildcraft-all-7.99.24.3.jar
                       * buildcraftapi_robotics (3.0) from buildcraft-all-7.99.24.3.jar
                       * buildcraftapi_statements (1.1) from buildcraft-all-7.99.24.3.jar
                       * buildcraftapi_tiles (1.2) from buildcraft-all-7.99.24.3.jar
                       * buildcraftapi_tools (1.0) from buildcraft-all-7.99.24.3.jar
                       * buildcraftapi_transport (5.0) from buildcraft-all-7.99.24.3.jar
                       * chesttransporter|api (2) from ChestTransporter-1.12.2-2.8.8.jar
                       * Chisel-API (0.0.1) from Chisel-MC1.12.2-1.0.1.44.jar
                       * ChiselAPI|Carving (0.0.1) from Chisel-MC1.12.2-1.0.1.44.jar
                       * ChiselsAndBitsAPI (14.25.0) from chiselsandbits-14.33.jar
                       * cofhapi (2.5.0) from CoFHCore-1.12.2-4.6.3.27-universal.jar
                       * commoncapabilities|api (0.0.1) from CommonCapabilities-1.12.2-2.4.4.jar
                       * CraftingTweaks|API (4.1) from CraftingTweaks_1.12.2-8.1.9.jar
                       * CSLib|API (1.0.1) from PTRLib-1.0.4.jar
                       * ctm-api (0.1.0) from CTM-MC1.12.2-1.0.0.29.jar
                       * ctm-api-events (0.1.0) from CTM-MC1.12.2-1.0.0.29.jar
                       * ctm-api-models (0.1.0) from CTM-MC1.12.2-1.0.0.29.jar
                       * ctm-api-textures (0.1.0) from CTM-MC1.12.2-1.0.0.29.jar
                       * ctm-api-utils (0.1.0) from CTM-MC1.12.2-1.0.0.29.jar
                       * DraconicEvolution|API (1.3) from Draconic-Evolution-1.12.2-2.3.24.349-universal.jar
                       * enderioapi (4.0.0) from EnderIO-1.12.2-5.1.52.jar
                       * enderioapi|addon (4.0.0) from EnderIO-1.12.2-5.1.52.jar
                       * enderioapi|capacitor (4.0.0) from EnderIO-1.12.2-5.1.52.jar
                       * enderioapi|conduits (4.0.0) from EnderIO-1.12.2-5.1.52.jar
                       * enderioapi|farm (4.0.0) from EnderIO-1.12.2-5.1.52.jar
                       * enderioapi|redstone (4.0.0) from EnderIO-1.12.2-5.1.52.jar
                       * enderioapi|teleport (4.0.0) from EnderIO-1.12.2-5.1.52.jar
                       * enderioapi|tools (4.0.0) from EnderIO-1.12.2-5.1.52.jar
                       * enderioapi|upgrades (4.0.0) from EnderIO-1.12.2-5.1.52.jar
                       * farmingforblockheads|api (1.0) from FarmingForBlockheads_1.12.2-3.1.28.jar
                       * ForestryAPI|apiculture (5.0.0) from forestry_1.12.2-5.8.2.387.jar
                       * ForestryAPI|arboriculture (4.3.0) from forestry_1.12.2-5.8.2.387.jar
                       * ForestryAPI|book (5.8.1) from forestry_1.12.2-5.8.2.387.jar
                       * ForestryAPI|circuits (3.1.0) from forestry_1.12.2-5.8.2.387.jar
                       * ForestryAPI|climate (5.0.0) from forestry_1.12.2-5.8.2.387.jar
                       * ForestryAPI|core (5.7.0) from forestry_1.12.2-5.8.2.387.jar
                       * ForestryAPI|farming (5.8.0) from forestry_1.12.2-5.8.2.387.jar
                       * ForestryAPI|food (1.1.0) from forestry_1.12.2-5.8.2.387.jar
                       * ForestryAPI|fuels (3.0.0) from forestry_1.12.2-5.8.2.387.jar
                       * ForestryAPI|genetics (5.7.0) from forestry_1.12.2-5.8.2.387.jar
                       * ForestryAPI|gui (5.8.0) from forestry_1.12.2-5.8.2.387.jar
                       * ForestryAPI|hives (4.1.0) from forestry_1.12.2-5.8.2.387.jar
                       * ForestryAPI|lepidopterology (1.4.0) from forestry_1.12.2-5.8.2.387.jar
                       * ForestryAPI|mail (3.1.0) from forestry_1.12.2-5.8.2.387.jar
                       * ForestryAPI|modules (5.7.0) from forestry_1.12.2-5.8.2.387.jar
                       * ForestryAPI|multiblock (3.0.0) from forestry_1.12.2-5.8.2.387.jar
                       * ForestryAPI|recipes (5.4.0) from forestry_1.12.2-5.8.2.387.jar
                       * ForestryAPI|storage (5.0.0) from forestry_1.12.2-5.8.2.387.jar
                       * ForestryAPI|world (2.1.0) from forestry_1.12.2-5.8.2.387.jar
                       * ForgeEndertechAPI (1.0) from ForgeEndertech-1.12.2-4.4.24.0-build.0421.jar
                       * gendustryAPI (2.3.0) from gendustry-1.6.5.8-mc1.12.2.jar
                       * Guide-API|API (2.0.0) from Guide-API-1.12-2.1.8-63.jar
                       * iChunUtil API (1.2.0) from iChunUtil-1.12.2-7.2.2.jar
                       * ImmersiveEngineering|API (1.0) from ImmersiveEngineering-0.12-92.jar
                       * ImmersiveEngineering|ImmersiveFluxAPI (1.0) from ImmersiveEngineering-0.12-92.jar
                       * industrialforegoingapi (5) from industrialforegoing-1.12.2-1.12.13-237.jar
                       * integrateddynamics|api (0.2.0) from IntegratedDynamics-1.12.2-1.1.0.jar
                       * jeresources|API (0.9.2.60) from JustEnoughResources-1.12.2-0.9.2.60.jar
                       * journeymap|client-api (1.4) from journeymap-1.12.2-5.5.5.jar
                       * journeymap|client-api-display (1.4) from journeymap-1.12.2-5.5.5.jar
                       * journeymap|client-api-event (1.4) from journeymap-1.12.2-5.5.5.jar
                       * journeymap|client-api-model (1.4) from journeymap-1.12.2-5.5.5.jar
                       * journeymap|client-api-util (1.4) from journeymap-1.12.2-5.5.5.jar
                       * JustEnoughItemsAPI (4.13.0) from jei_1.12.2-4.15.0.291.jar
                       * MekanismAPI|core (9.8.1) from Mekanism-1.12.2-9.8.2.389.jar
                       * MekanismAPI|energy (9.8.1) from Mekanism-1.12.2-9.8.2.389.jar
                       * MekanismAPI|gas (9.8.1) from Mekanism-1.12.2-9.8.2.389.jar
                       * MekanismAPI|infuse (9.8.1) from Mekanism-1.12.2-9.8.2.389.jar
                       * MekanismAPI|laser (9.8.1) from Mekanism-1.12.2-9.8.2.389.jar
                       * MekanismAPI|transmitter (9.8.1) from Mekanism-1.12.2-9.8.2.389.jar
                       * MekanismAPI|util (9.0.0) from Mekanism-1.12.2-9.8.2.389.jar
                       * minecolonies-api (1.12.2-0.10.488-RELEASE) from minecolonies-1.12.2-0.10.488-RELEASE-universal.jar
                       * minecolonies-api|achievements (1.12.2-0.10.488-RELEASE) from minecolonies-1.12.2-0.10.488-RELEASE-universal.jar
                       * minecolonies-api|blocks (1.12.2-0.10.488-RELEASE) from minecolonies-1.12.2-0.10.488-RELEASE-universal.jar
                       * minecolonies-api|blocks|decorative (1.12.2-0.10.488-RELEASE) from minecolonies-1.12.2-0.10.488-RELEASE-universal.jar
                       * minecolonies-api|blocks|huts (1.12.2-0.10.488-RELEASE) from minecolonies-1.12.2-0.10.488-RELEASE-universal.jar
                       * minecolonies-api|blocks|interfaces (1.12.2-0.10.488-RELEASE) from minecolonies-1.12.2-0.10.488-RELEASE-universal.jar
                       * minecolonies-api|blocks|types (1.12.2-0.10.488-RELEASE) from minecolonies-1.12.2-0.10.488-RELEASE-universal.jar
                       * minecolonies-api|client (1.12.2-0.10.488-RELEASE) from minecolonies-1.12.2-0.10.488-RELEASE-universal.jar
                       * minecolonies-api|client|render (1.12.2-0.10.488-RELEASE) from minecolonies-1.12.2-0.10.488-RELEASE-universal.jar
                       * minecolonies-api|client|render|modeltype (1.12.2-0.10.488-RELEASE) from minecolonies-1.12.2-0.10.488-RELEASE-universal.jar
                       * minecolonies-api|client|render|modeltype|registry (1.12.2-0.10.488-RELEASE) from minecolonies-1.12.2-0.10.488-RELEASE-universal.jar
                       * minecolonies-api|colony (1.12.2-0.10.488-RELEASE) from minecolonies-1.12.2-0.10.488-RELEASE-universal.jar
                       * minecolonies-api|colony|buildings (1.12.2-0.10.488-RELEASE) from minecolonies-1.12.2-0.10.488-RELEASE-universal.jar
                       * minecolonies-api|colony|buildings|registry (1.12.2-0.10.488-RELEASE) from minecolonies-1.12.2-0.10.488-RELEASE-universal.jar
                       * minecolonies-api|colony|buildings|views (1.12.2-0.10.488-RELEASE) from minecolonies-1.12.2-0.10.488-RELEASE-universal.jar
                       * minecolonies-api|colony|buildings|workerbuildings (1.12.2-0.10.488-RELEASE) from minecolonies-1.12.2-0.10.488-RELEASE-universal.jar
                       * minecolonies-api|colony|guardtype (1.12.2-0.10.488-RELEASE) from minecolonies-1.12.2-0.10.488-RELEASE-universal.jar
                       * minecolonies-api|colony|guardtype|registry (1.12.2-0.10.488-RELEASE) from minecolonies-1.12.2-0.10.488-RELEASE-universal.jar
                       * minecolonies-api|colony|jobs (1.12.2-0.10.488-RELEASE) from minecolonies-1.12.2-0.10.488-RELEASE-universal.jar
                       * minecolonies-api|colony|jobs|registry (1.12.2-0.10.488-RELEASE) from minecolonies-1.12.2-0.10.488-RELEASE-universal.jar
                       * minecolonies-api|colony|managers (1.12.2-0.10.488-RELEASE) from minecolonies-1.12.2-0.10.488-RELEASE-universal.jar
                       * minecolonies-api|colony|managers|interfaces (1.12.2-0.10.488-RELEASE) from minecolonies-1.12.2-0.10.488-RELEASE-universal.jar
                       * minecolonies-api|colony|permissions (1.12.2-0.10.488-RELEASE) from minecolonies-1.12.2-0.10.488-RELEASE-universal.jar
                       * minecolonies-api|colony|requestsystem (1.12.2-0.10.488-RELEASE) from minecolonies-1.12.2-0.10.488-RELEASE-universal.jar
                       * minecolonies-api|colony|requestsystem|data (1.12.2-0.10.488-RELEASE) from minecolonies-1.12.2-0.10.488-RELEASE-universal.jar
                       * minecolonies-api|colony|requestsystem|factory (1.12.2-0.10.488-RELEASE) from minecolonies-1.12.2-0.10.488-RELEASE-universal.jar
                       * minecolonies-api|colony|requestsystem|factory|standard (1.12.2-0.10.488-RELEASE) from minecolonies-1.12.2-0.10.488-RELEASE-universal.jar
                       * minecolonies-api|colony|requestsystem|location (1.12.2-0.10.488-RELEASE) from minecolonies-1.12.2-0.10.488-RELEASE-universal.jar
                       * minecolonies-api|colony|requestsystem|manager (1.12.2-0.10.488-RELEASE) from minecolonies-1.12.2-0.10.488-RELEASE-universal.jar
                       * minecolonies-api|colony|requestsystem|request (1.12.2-0.10.488-RELEASE) from minecolonies-1.12.2-0.10.488-RELEASE-universal.jar
                       * minecolonies-api|colony|requestsystem|requestable (1.12.2-0.10.488-RELEASE) from minecolonies-1.12.2-0.10.488-RELEASE-universal.jar
                       * minecolonies-api|colony|requestsystem|requestable|crafting (1.12.2-0.10.488-RELEASE) from minecolonies-1.12.2-0.10.488-RELEASE-universal.jar
                       * minecolonies-api|colony|requestsystem|requester (1.12.2-0.10.488-RELEASE) from minecolonies-1.12.2-0.10.488-RELEASE-universal.jar
                       * minecolonies-api|colony|requestsystem|resolver (1.12.2-0.10.488-RELEASE) from minecolonies-1.12.2-0.10.488-RELEASE-universal.jar
                       * minecolonies-api|colony|requestsystem|resolver|player (1.12.2-0.10.488-RELEASE) from minecolonies-1.12.2-0.10.488-RELEASE-universal.jar
                       * minecolonies-api|colony|requestsystem|resolver|retrying (1.12.2-0.10.488-RELEASE) from minecolonies-1.12.2-0.10.488-RELEASE-universal.jar
                       * minecolonies-api|colony|requestsystem|token (1.12.2-0.10.488-RELEASE) from minecolonies-1.12.2-0.10.488-RELEASE-universal.jar
                       * minecolonies-api|colony|workorders (1.12.2-0.10.488-RELEASE) from minecolonies-1.12.2-0.10.488-RELEASE-universal.jar
                       * minecolonies-api|compatibility (1.12.2-0.10.488-RELEASE) from minecolonies-1.12.2-0.10.488-RELEASE-universal.jar
                       * minecolonies-api|compatibility|candb (1.12.2-0.10.488-RELEASE) from minecolonies-1.12.2-0.10.488-RELEASE-universal.jar
                       * minecolonies-api|compatibility|dynamictrees (1.12.2-0.10.488-RELEASE) from minecolonies-1.12.2-0.10.488-RELEASE-universal.jar
                       * minecolonies-api|compatibility|gbook (1.12.2-0.10.488-RELEASE) from minecolonies-1.12.2-0.10.488-RELEASE-universal.jar
                       * minecolonies-api|compatibility|tinkers (1.12.2-0.10.488-RELEASE) from minecolonies-1.12.2-0.10.488-RELEASE-universal.jar
                       * minecolonies-api|configuration (1.12.2-0.10.488-RELEASE) from minecolonies-1.12.2-0.10.488-RELEASE-universal.jar
                       * minecolonies-api|crafting (1.12.2-0.10.488-RELEASE) from minecolonies-1.12.2-0.10.488-RELEASE-universal.jar
                       * minecolonies-api|creativetab (1.12.2-0.10.488-RELEASE) from minecolonies-1.12.2-0.10.488-RELEASE-universal.jar
                       * minecolonies-api|entity (1.12.2-0.10.488-RELEASE) from minecolonies-1.12.2-0.10.488-RELEASE-universal.jar
                       * minecolonies-api|entity|ai (1.12.2-0.10.488-RELEASE) from minecolonies-1.12.2-0.10.488-RELEASE-universal.jar
                       * minecolonies-api|entity|ai|citizen (1.12.2-0.10.488-RELEASE) from minecolonies-1.12.2-0.10.488-RELEASE-universal.jar
                       * minecolonies-api|entity|ai|citizen|builder (1.12.2-0.10.488-RELEASE) from minecolonies-1.12.2-0.10.488-RELEASE-universal.jar
                       * minecolonies-api|entity|ai|citizen|guards (1.12.2-0.10.488-RELEASE) from minecolonies-1.12.2-0.10.488-RELEASE-universal.jar
                       * minecolonies-api|entity|ai|pathfinding (1.12.2-0.10.488-RELEASE) from minecolonies-1.12.2-0.10.488-RELEASE-universal.jar
                       * minecolonies-api|entity|ai|registry (1.12.2-0.10.488-RELEASE) from minecolonies-1.12.2-0.10.488-RELEASE-universal.jar
                       * minecolonies-api|entity|ai|statemachine (1.12.2-0.10.488-RELEASE) from minecolonies-1.12.2-0.10.488-RELEASE-universal.jar
                       * minecolonies-api|entity|ai|statemachine|basestatemachine (1.12.2-0.10.488-RELEASE) from minecolonies-1.12.2-0.10.488-RELEASE-universal.jar
                       * minecolonies-api|entity|ai|statemachine|states (1.12.2-0.10.488-RELEASE) from minecolonies-1.12.2-0.10.488-RELEASE-universal.jar
                       * minecolonies-api|entity|ai|statemachine|tickratestatemachine (1.12.2-0.10.488-RELEASE) from minecolonies-1.12.2-0.10.488-RELEASE-universal.jar
                       * minecolonies-api|entity|ai|statemachine|transition (1.12.2-0.10.488-RELEASE) from minecolonies-1.12.2-0.10.488-RELEASE-universal.jar
                       * minecolonies-api|entity|citizen (1.12.2-0.10.488-RELEASE) from minecolonies-1.12.2-0.10.488-RELEASE-universal.jar
                       * minecolonies-api|entity|citizen|citizenhandlers (1.12.2-0.10.488-RELEASE) from minecolonies-1.12.2-0.10.488-RELEASE-universal.jar
                       * minecolonies-api|entity|mobs (1.12.2-0.10.488-RELEASE) from minecolonies-1.12.2-0.10.488-RELEASE-universal.jar
                       * minecolonies-api|entity|mobs|barbarians (1.12.2-0.10.488-RELEASE) from minecolonies-1.12.2-0.10.488-RELEASE-universal.jar
                       * minecolonies-api|entity|mobs|pirates (1.12.2-0.10.488-RELEASE) from minecolonies-1.12.2-0.10.488-RELEASE-universal.jar
                       * minecolonies-api|entity|mobs|util (1.12.2-0.10.488-RELEASE) from minecolonies-1.12.2-0.10.488-RELEASE-universal.jar
                       * minecolonies-api|entity|pathfinding (1.12.2-0.10.488-RELEASE) from minecolonies-1.12.2-0.10.488-RELEASE-universal.jar
                       * minecolonies-api|entity|pathfinding|registry (1.12.2-0.10.488-RELEASE) from minecolonies-1.12.2-0.10.488-RELEASE-universal.jar
                       * minecolonies-api|inventory (1.12.2-0.10.488-RELEASE) from minecolonies-1.12.2-0.10.488-RELEASE-universal.jar
                       * minecolonies-api|inventory|api (1.12.2-0.10.488-RELEASE) from minecolonies-1.12.2-0.10.488-RELEASE-universal.jar
                       * minecolonies-api|items (1.12.2-0.10.488-RELEASE) from minecolonies-1.12.2-0.10.488-RELEASE-universal.jar
                       * minecolonies-api|network (1.12.2-0.10.488-RELEASE) from minecolonies-1.12.2-0.10.488-RELEASE-universal.jar
                       * minecolonies-api|sounds (1.12.2-0.10.488-RELEASE) from minecolonies-1.12.2-0.10.488-RELEASE-universal.jar
                       * minecolonies-api|tileentities (1.12.2-0.10.488-RELEASE) from minecolonies-1.12.2-0.10.488-RELEASE-universal.jar
                       * minecolonies-api|util (1.12.2-0.10.488-RELEASE) from minecolonies-1.12.2-0.10.488-RELEASE-universal.jar
                       * minecolonies-api|util|constants (1.12.2-0.10.488-RELEASE) from minecolonies-1.12.2-0.10.488-RELEASE-universal.jar
                       * minecolonies-blockout (1.12.2-0.10.488-RELEASE) from minecolonies-1.12.2-0.10.488-RELEASE-universal.jar
                       * minecolonies-blockout|controls (1.12.2-0.10.488-RELEASE) from minecolonies-1.12.2-0.10.488-RELEASE-universal.jar
                       * minecolonies-blockout|views (1.12.2-0.10.488-RELEASE) from minecolonies-1.12.2-0.10.488-RELEASE-universal.jar
                       * MouseTweaks|API (1.0) from MouseTweaks-2.10-mc1.12.2.jar
                       * openblocks|api (1.2) from OpenBlocks-1.12.2-1.8.1.jar
                       * opencomputersapi|component (7.0.0-alpha) from OpenComputers-MC1.12.2-1.7.4.153.jar
                       * opencomputersapi|core (7.0.0-alpha) from OpenComputers-MC1.12.2-1.7.4.153.jar
                       * opencomputersapi|driver (7.0.0-alpha) from OpenComputers-MC1.12.2-1.7.4.153.jar
                       * opencomputersapi|driver|item (7.0.0-alpha) from OpenComputers-MC1.12.2-1.7.4.153.jar
                       * opencomputersapi|event (7.0.0-alpha) from OpenComputers-MC1.12.2-1.7.4.153.jar
                       * opencomputersapi|filesystem (7.0.0-alpha) from OpenComputers-MC1.12.2-1.7.4.153.jar
                       * opencomputersapi|internal (7.0.0-alpha) from OpenComputers-MC1.12.2-1.7.4.153.jar
                       * opencomputersapi|machine (7.0.0-alpha) from OpenComputers-MC1.12.2-1.7.4.153.jar
                       * opencomputersapi|manual (7.0.0-alpha) from OpenComputers-MC1.12.2-1.7.4.153.jar
                       * opencomputersapi|network (7.0.0-alpha) from OpenComputers-MC1.12.2-1.7.4.153.jar
                       * opencomputersapi|prefab (7.0.0-alpha) from OpenComputers-MC1.12.2-1.7.4.153.jar
                       * PatchouliAPI (6) from Patchouli-1.0-20.jar
                       * PneumaticCraftApi (1.1) from pneumaticcraft-repressurized-1.12.2-0.11.7-375.jar
                       * practicallogistics2-api (3.1) from practicallogistics2-1.12.2-3.0.8-11.jar
                       * projectred|api (2.1) from ProjectRed-1.12.2-4.9.4.120-Base.jar
                       * QuarkAPI (4) from Quark-r1.6-177.jar
                       * reborncoreAPI (3.16.4.478) from RebornCore-1.12.2-3.16.4.478-universal.jar
                       * reborncoreAPI|Power (3.16.4.478) from RebornCore-1.12.2-3.16.4.478-universal.jar
                       * reborncoreAPI|Praescriptum (3.16.4.478) from RebornCore-1.12.2-3.16.4.478-universal.jar
                       * reborncoreAPI|Recipe (3.16.4.478) from RebornCore-1.12.2-3.16.4.478-universal.jar
                       * reborncoreAPI|Tile (3.16.4.478) from RebornCore-1.12.2-3.16.4.478-universal.jar
                       * redstonefluxapi (2.1.0) from RedstoneFlux-1.12-2.1.0.6-universal.jar
                       * rh_api (3.00) from rockhounding_core-1.12.2-3.22.jar
                       * sonarapi (1.0.1) from sonarcore-1.12.2-5.0.19-20.jar
                       * stevescartsAPI (${version}) from StevesCarts-1.12.2-2.4.31.135.jar
                       * stevescartsAPI|FARMS (${version}) from StevesCarts-1.12.2-2.4.31.135.jar
                       * StorageDrawersAPI (2.1.0) from StorageDrawers-1.12.2-5.4.0.jar
                       * StorageDrawersAPI|event (2.1.0) from StorageDrawers-1.12.2-5.4.0.jar
                       * StorageDrawersAPI|registry (2.1.0) from StorageDrawers-1.12.2-5.4.0.jar
                       * StorageDrawersAPI|render (2.1.0) from StorageDrawers-1.12.2-5.4.0.jar
                       * StorageDrawersAPI|storage (2.1.0) from StorageDrawers-1.12.2-5.4.0.jar
                       * StorageDrawersAPI|storage-attribute (2.1.0) from StorageDrawers-1.12.2-5.4.0.jar
                       * techrebornAPI (2.24.3.1043) from TechReborn-1.12.2-2.24.3.1043-universal.jar
                       * theoneprobe_api (1.4.4) from theoneprobe-1.12-1.4.28.jar
                       * valkyrielib.api (1.12.2-2.0.10a) from valkyrielib-1.12.2-2.0.20.1.jar
                       * WailaAPI (1.3) from Hwyla-1.8.26-B41_1.12.2.jar
                       * zerocore|API|multiblock (1.10.2-0.0.2) from zerocore-1.12.2-0.1.2.8.jar
                       * zerocore|API|multiblock|rectangular (1.10.2-0.0.2) from zerocore-1.12.2-0.1.2.8.jar
                       * zerocore|API|multiblock|tier (1.10.2-0.0.2) from zerocore-1.12.2-0.1.2.8.jar
                       * zerocore|API|multiblock|validation (1.10.2-0.0.2) from zerocore-1.12.2-0.1.2.8.jar
  RebornCore: Plugin Engine: 0
              RebornCore Version: 3.16.4.478
              Runtime Debofucsation 1
              RenderEngine: 0
  Ender IO: No known problems detected.
            
            !!!!!!!!!!!!!!!!!!!!!!!!!!!!!!!!!!!!!!!!!!!!!!!!!!!!!!!!!!!!!!!!!!!!!!!!!!!!!!
            !!!You are looking at the diagnostics information, not at the crash.       !!!
            !!!Scroll up until you see the line with '---- Minecraft Crash Report ----'!!!
            !!!!!!!!!!!!!!!!!!!!!!!!!!!!!!!!!!!!!!!!!!!!!!!!!!!!!!!!!!!!!!!!!!!!!!!!!!!!!!
  Suspected Mods: Rockhounding Mod: Chemistry (rockhounding_chemistry)
  Launched Version: MultiMC5
  LWJGL: 2.9.4
  OpenGL: GeForce GTX 1060 6GB/PCIe/SSE2 GL version 4.6.0 NVIDIA 440.31, NVIDIA Corporation
  GL Caps: Using GL 1.3 multitexturing.
           Using GL 1.3 texture combiners.
           Using framebuffer objects because OpenGL 3.0 is supported and separate blending is supported.
           Shaders are available because OpenGL 2.1 is supported.
           VBOs are available because OpenGL 1.5 is supported.
  Using VBOs: Yes
  Is Modded: Definitely; Client brand changed to 'fml,forge'
  Type: Client (map_client.txt)
  Resource Packs: 
  Current Language: English (US)
  Profiler Position: N/A (disabled)
  CPU: 4x Intel(R) Core(TM) i3-8100 CPU @ 3.60GHz
